"분류","공연/행사명","날짜/시간","장소","기관명","이용대상","이용요금","출연자정보","프로그램소개","기타내용","홈페이지?주소","대표이미지","신청일","시민/기관","시작일","종료일","테마분류"
"무용","지젤","2020-06-10~2020-06-14","예술의전당 오페라극장","정부문화포털","전화문의","1층석 5만원 / 1층BOX석 3만원 / 2층석 3만원 / 3층석 5천원 (변동될 수 있음)","","","","http://www.korean-national-ballet.kr/ko/performance/view?id=1159#Casting","http://culture.seoul.go.krhttp://www.culture.go.kr/upload/rdf/20/05/rdf_2020051115404152398.png","2020-06-10","","2020-06-10 00:00:00.0","2020-06-14 00:00:00.0","기타"
"콘서트","2020 REBOOTING : 경기도민과 함께 하는 공연예술 리부팅 프로젝트","2020-06-27~2020-06-28","대극장앞광장  소극장  신나는야외극장","경기도문화의전당","전 연령 관람가","","","","","http://www.ggac.or.kr/?p=14_view&amp;idSchedule=11364&amp;rp=14&amp;ptype=2&amp;isall=&amp;year=2020&amp;month=06&amp;s_szPlaytype=%EA%B8%B0%ED%9A%8D%EA%B3%B5%EC%97%B0%2C%EC%98%88%EC%88%A0%EB%8B%A8%EA%B3%B5%EC%97%B0%2C%EB%8C%80%EA%B4%80%EA%B3%B5%EC%97%B0%2C%EC%A0%84%EC%8B%9C","http://culture.seoul.go.krhttp://www.ggac.or.kr/_File/play/poster/thumb_20200602103900.jpg","2020-06-08","","2020-06-27 00:00:00.0","2020-06-28 00:00:00.0","기타"
"뮤지컬/오페라","뮤지컬 [레베카]-수원","2020-06-19~2020-06-21","대극장","경기도문화의전당","만 7세 이상","VIP 15만원 R 13만원 S 9만원 A 7만원","","","","http://www.ggac.or.kr/?p=14_view&amp;idSchedule=11330&amp;rp=14&amp;ptype=2&amp;isall=&amp;year=2020&amp;month=06&amp;s_szPlaytype=%EA%B8%B0%ED%9A%8D%EA%B3%B5%EC%97%B0%2C%EC%98%88%EC%88%A0%EB%8B%A8%EA%B3%B5%EC%97%B0%2C%EB%8C%80%EA%B4%80%EA%B3%B5%EC%97%B0%2C%EC%A0%84%EC%8B%9C","http://culture.seoul.go.krhttp://www.ggac.or.kr/_File/play/poster/20200602112318.jpg","2020-06-08","","2020-06-19 00:00:00.0","2020-06-21 00:00:00.0","기타"
"콘서트","공간：무심히 지나보낸 그 장소에서 - 6월의 랑데북","2020-06-18~2020-06-18","소극장","경기도문화의전당","만7세이상(초등학생 이상)","R석 33000원 / S석 22000원","","","","http://www.ggac.or.kr/?p=14_view&amp;idSchedule=11251&amp;rp=14&amp;ptype=2&amp;isall=&amp;year=2020&amp;month=06&amp;s_szPlaytype=%EA%B8%B0%ED%9A%8D%EA%B3%B5%EC%97%B0%2C%EC%98%88%EC%88%A0%EB%8B%A8%EA%B3%B5%EC%97%B0%2C%EB%8C%80%EA%B4%80%EA%B3%B5%EC%97%B0%2C%EC%A0%84%EC%8B%9C","http://culture.seoul.go.krhttp://www.ggac.or.kr/_File/play/poster/thumb_20200511171853.jpg","2020-06-08","","2020-06-18 00:00:00.0","2020-06-18 00:00:00.0","기타"
"연극","연극 <그 여자의 소설>","2020-06-12~2020-06-12","소극장","경기도문화의전당","중학생 이상 관람가","R석 20000원 S석 10000원","","","","http://www.ggac.or.kr/?p=14_view&amp;idSchedule=11362&amp;rp=14&amp;ptype=2&amp;isall=&amp;year=2020&amp;month=06&amp;s_szPlaytype=%EA%B8%B0%ED%9A%8D%EA%B3%B5%EC%97%B0%2C%EC%98%88%EC%88%A0%EB%8B%A8%EA%B3%B5%EC%97%B0%2C%EB%8C%80%EA%B4%80%EA%B3%B5%EC%97%B0%2C%EC%A0%84%EC%8B%9C","http://culture.seoul.go.krhttp://www.ggac.or.kr/_File/play/poster/20200604101627.png","2020-06-08","","2020-06-12 00:00:00.0","2020-06-12 00:00:00.0","기타"
"클래식","칸티쿰합창단 제31회 정기연주회","2020-06-30~2020-06-30","고양아람누리 아람음악당","고양아람누리","만 7세 이상 (미취학아동 입장불가) [1인1매]","R석 : 50000원 S석 : 30000원 A석 : 20000원 B석 : 10000원","","","","http://www.artgy.or.kr/PF/PF0201V.aspx?showid=0000006180","http://culture.seoul.go.krhttp://www.artgy.or.kr/images/common/nogoyang.gif","2020-06-08","","2020-06-30 00:00:00.0","2020-06-30 00:00:00.0","기타"
"클래식","두레콘서트110회기념음악회","2020-06-27~2020-06-27","고양아람누리 아람음악당","고양아람누리","만 7세 이상 (만 7세 미만 입장불가) [1인1매]","전석 : 30000원","","","","http://www.artgy.or.kr/PF/PF0201V.aspx?showid=0000006175","http://culture.seoul.go.krhttp://www.artgy.or.kr/upload/tbl_show/20200515_21.jpg","2020-06-08","","2020-06-27 00:00:00.0","2020-06-27 00:00:00.0","기타"
"콘서트","포레스텔라 콘서트 [넬라 판타지아] - 고양","2020-06-27~2020-06-27","고양아람누리 아람극장","고양아람누리","만 7세 이상 (만 7세 미만 입장불가) [1인1매]","R석 : 132000원 S석 : 110000원 A석 :　88000원 B석 :　55000원","","","","http://www.artgy.or.kr/PF/PF0201V.aspx?showid=0000006173","http://culture.seoul.go.krhttp://www.artgy.or.kr/upload/tbl_show/20200514_01.jpg","2020-06-08","","2020-06-27 00:00:00.0","2020-06-27 00:00:00.0","기타"
"클래식","2020 아람누리 마티네콘서트 패키지","2020-06-25~2020-12-10","고양아람누리 아람음악당","고양아람누리","초등학생 이상 (미취학아동 입장불가) [1인 1매]","전석 : 20000원","","","","http://www.artgy.or.kr/PF/PF0201V.aspx?showid=0000006097","http://culture.seoul.go.krhttp://www.artgy.or.kr/upload/tbl_show/20191230_11.jpg","2020-06-08","","2020-06-25 00:00:00.0","2020-12-10 00:00:00.0","기타"
"클래식","[예매마감] 2020 아람누리 마티네콘서트 2","2020-06-25~2020-06-25","고양아람누리 아람음악당","고양아람누리","초등학생 이상 (미취학아동 입장불가) [1인 1매]","전석 : 20000 원","","","","http://www.artgy.or.kr/PF/PF0201V.aspx?showid=0000006094","http://culture.seoul.go.krhttp://www.artgy.or.kr/upload/tbl_show/20191230_05.jpg","2020-06-08","","2020-06-25 00:00:00.0","2020-06-25 00:00:00.0","기타"
"연극","공연배달서비스 간다 2020 신작 [돛닻]","2020-06-11~2020-06-14","고양아람누리 새라새극장","고양아람누리","중학생 이상 (만 13세 미만 입장불가) [1인 1매]","전석 : 20000원","","","","http://www.artgy.or.kr/PF/PF0201V.aspx?showid=0000006169","http://culture.seoul.go.krhttp://www.artgy.or.kr/upload/tbl_show/20200508_03.jpg","2020-06-08","","2020-06-11 00:00:00.0","2020-06-14 00:00:00.0","기타"
"콘서트","[기획] 무한상상 아트캠프 &amp;quot;Up-Cycling Up-Art&amp;quot;","2020-06-27~2020-06-27","의정부아트캠프","의정부예술의전당","전체","무료","","","","http://www.uac.or.kr/newuac/performance/performance_01D.php?PFM_CODE=202006021534516","http://culture.seoul.go.krhttp://www.uac.or.kr/upfiles/PERFORMANCE/202006021534516_20200602153451.jpg","2020-06-08","","2020-06-27 00:00:00.0","2020-06-27 00:00:00.0","기타"
"콘서트","[기획] Hans Zimmer&amp;#39;s <2020 게임영상?음악 콘서트>","2020-06-24~2020-06-24","의정부예술의전당 대극장","의정부예술의전당","8세 이상(미취학 아동 관람불가)","전석 10000원 ※거리두기 좌석","","","","http://www.uac.or.kr/newuac/performance/performance_01D.php?PFM_CODE=202005201522125","http://culture.seoul.go.krhttp://www.uac.or.kr/upfiles/PERFORMANCE/202005201522125_20200530153310.jpg","2020-06-08","","2020-06-24 00:00:00.0","2020-06-24 00:00:00.0","기타"
"연극","[기획] 하림의 <아프리카 오버랜드>","2020-06-19~2020-06-19","의정부예술의전당 소극장","의정부예술의전당","8세 이상(미취학 아동 관람 불가)","전석 20000원 ※거리두기 좌석","","","","http://www.uac.or.kr/newuac/performance/performance_01D.php?PFM_CODE=202005201526138","http://culture.seoul.go.krhttp://www.uac.or.kr/upfiles/PERFORMANCE/202005201526138_20200530144839.jpg","2020-06-08","","2020-06-19 00:00:00.0","2020-06-19 00:00:00.0","기타"
"연극","<열여덟 어른> : 2020 연극만원 시리즈(네이버 생중계 6/20 오후5시)","2020-06-20~2020-06-20","앙상블시어터","성남아트센터","만12세 이상","전석 1만원","","","","https://www.snart.or.kr/web/show/view/?MENUMST_ID=21434&amp;type=year&amp;show_type=perform&amp;SNA_SHOW_IDX=6238","http://culture.seoul.go.krhttps://www.snart.or.kr/upload/image/20200526/9ECC04A84DD749409E58941F91CFFBFE.jpg","2020-06-08","","2020-06-20 00:00:00.0","2020-06-20 00:00:00.0","기타"
"콘서트","2020 마티네 콘서트 - 베토벤 250(6월-네이버 생중계)","2020-06-18~2020-06-18","콘서트홀","성남아트센터","미취학아동입장불가","전석 25000원","","","","https://www.snart.or.kr/web/show/view/?MENUMST_ID=21434&amp;type=year&amp;show_type=perform&amp;SNA_SHOW_IDX=6115","http://culture.seoul.go.krhttps://www.snart.or.kr/upload/image/20191217/55D77DC8A7B24D5F820E5C999847B6C2.jpg","2020-06-08","","2020-06-18 00:00:00.0","2020-06-18 00:00:00.0","기타"
"콘서트","[금난새의 오페라이야기 - 비제 카르멘] 네이버 공연 실황 생중계","2020-06-11~2020-06-11","콘서트홀","성남아트센터","입장연령제한없음","무료","","","","https://www.snart.or.kr/web/show/view/?MENUMST_ID=21434&amp;type=year&amp;show_type=perform&amp;SNA_SHOW_IDX=6240","http://culture.seoul.go.krhttps://www.snart.or.kr/upload/image/20200605/DD34E294326E4A9BBB3F0B060DDB8E36.jpg","2020-06-08","","2020-06-11 00:00:00.0","2020-06-11 00:00:00.0","기타"
"연극","밤이면 나는 우주로 간다","2020-06-05~2020-06-20","마포아트센터 플레이맥","정부문화포털","만 12세이상","30000원","","","","http://ticket.interpark.com/Ticket/Goods/GoodsInfo.asp?GoodsCode=20003904#","http://culture.seoul.go.krhttp://www.culture.go.kr/upload/rdf/20/05/rdf_202005211434066141.png","2020-06-05","","2020-06-05 00:00:00.0","2020-06-20 00:00:00.0","기타"
"뮤지컬/오페라","MAC 천원의 문화공감 〈Dancing with the Opera〉","2020-06-24~2020-06-24","마포아트센터 아트홀맥","마포구청","8세이상관람가","전석 1000원","플라멩코 -올레플라멩꼬레아 구노 - 나는 살고 싶어요 - 오페라 &amp;#39;로미오와 줄리엣&amp;#39; 이명희 사티 -나는 그대를 원해요 강신모 오펜바흐 - 인형의 노래 - 오페라 &amp;#39;호프만의 이야기&amp;#39; 이수현 지로-파리의 하는 아래 강신모 하수빈빅시오-숲속의 길 김인휘 레하르-입술은 침묵하고 - 오페레타 &amp;#39;메리 위도우 강신모 이명희","오페라와 춤 그 아름다운 어울림  「Dancing with the Opera」는 ‘카르멘’ ‘메리 위도우’ ‘로미오와 줄리엣’ 등 유명 오페라의 아리아와 ‘리베르탱고’ 등 대중에게 널리 알려진 명곡을 춤과 함께 감상할 수 있는 특별한 음악회이다.   르엘오페라단의 테너 강신모 바리톤 김인휘 소프라노 이명희 이수현 뮤지컬 가수 하수빈 등 실력파 성악가들과 플라멩코 공연단체인 올레플라멩꼬레아의 댄서들이 오페라와 춤 그 아름다운 어울림을 선사해줄 예정이다. 여기에 더해지는 유쾌한 입담의 음악평론가 장일범의 친절한 해설은 오페라와 한층 더 가까워지는 시간을 마련해 줄 것이다.","비제투우사의 노래 - 오페라 &amp;#39;카르멘&amp;#39; 중 김인휘 플라멩코올레플라멩꼬레아(윤선아 solo) 레하르- &amp;#39;뜨겁게 입맞춤하는 내 입술&amp;#39; 오페레타 ‘주디타’ 이명희 소로자발-그럴 리가 없어요 - 오페라 &amp;#39;항구의 선술집&amp;#39; 강신모 들리브카디스의 처녀들 이수현 가르델간발의 차이로 하수빈 라칼레양귀비 강신모 김인휘","http://www.mapoartcenter.or.kr/mapoArt/f/jsp/performance/whole_view.jsp?idx=1904&pageNm=whole_list","http://culture.seoul.go.kr/data/ci/20200603150612.jpg","2020-06-03","기관","2020-06-24 00:00:00.0","2020-06-24 00:00:00.0","기타"
"무용","2020 발레갈라 〈The Masterpiece〉","2020-07-01~2020-07-02","마포아트센터 아트홀맥","마포구청","8세이상관람가[미취학아동입장불가]","R석 40000원 S석 30000원","캐스팅 서울발레시어터 이원국발레단 SEO(서)발레단 와이즈발레단 * 특별초청공연 국립발레단","공연소개 국립발레단 서울발레시어터 이원국발레단 SEO(서)발레단 와이즈발레단 이름만으로도 믿음을 주는 국내 정상의 다섯 발레단의 작품을 한 무대에서 만날 수 있는 기회!  클래식 발레부터 모던 발레까지 각기 다른 매력의 발레단이 선보이는 최고의 하이라이트!","할인정보 - 맥멤버십 VIP 30% - 맥멤버십 골드 20% - 맥멤버십 블루 50% - 마포구민 15% - 마포아트센터 회원 10% - 재관람 할인 20% (2016년~2019년 &amp;#39;발레갈라 더 마스터피스&amp;#39; 티켓 소지자 1인 2매) - 경로우대 50%(65세 이상 본인) - 예술인패스 소지자 40% - 아트패스마포 할인 50% - 장애인/국가유공자 50%","http://www.mapoartcenter.or.kr/mapoArt/f/jsp/performance/whole_view.jsp?idx=1903&pageNm=whole_list","http://culture.seoul.go.kr/data/ci/20200603104643.jpg","2020-06-03","기관","2020-07-01 00:00:00.0","2020-07-02 00:00:00.0","기타"
"콘서트","<수요음악방 시즌2> 1회차 행복 가득 재즈","2020-06-17~2020-06-17","오류아트홀","구로문화재단","8세 이상","전석 15000원 - 2+1 패키지 30000원 : 수요음악방 시리즈(재즈 블루스 피아노) 3개 공연 패키지 예매권  - 플러스친구 20% 12000원 : 오류아트홀 플러스친구 등록자 - 입주기관 20% 12000원: 오류문화센터 입주기관 이용자(구로문화원장난감나라 오류점) - 복지할인 50% 7500원","재즈밴드 판도라는 보컬 피아노 콘트라베이스 드럼으로 구성된 4인조 재즈 그룹입니다.  MBC 무한도전 ‘신들의 전쟁’ 2018 평창동계올림픽 라이브사이트 공연 등 다양한 영역에서 활발히 활동하고 있습니다. 전통 재즈부터 팝 가요 CF음악 영화 OST 등 퓨전 재즈까지 대중에게 재미있고 친숙한 재즈를 선사합니다.","수요음악방은 커피와 함께 오전 11시에 즐기는 마티네 커뮤니티 콘서트로  재즈 블루스 피아노 등 다양한 아티스트와 함께 이야기를 나누며 즐기는 행복한 음악방입니다.   ［1회차］ 재즈밴드 판도라의 해설이 있는 재즈 콘서트 “Falling in JAZZ”   산뜻한 여름에 마주하는 기분 좋은 재즈  ‘Sing Sing Sing’ 스윙재즈부터 ‘City of Stars’ ‘Into the Unknow’ 등 영화 OST까지  전 연령이 즐기는 재즈음악을 만나는 시간  재즈밴드 판도라의 해설과 함께 감성 가득한 재즈의 세계에 빠져보세요.","","https://www.guroartsvalley.or.kr/performance/commonView?guroart_menu_cd=U0007&seq_no=3397&perDisGubun=performance&currRow=1","http://culture.seoul.go.kr/data/ci/20200527155226.jpg","2020-05-27","기관","2020-06-17 00:00:00.0","2020-06-17 00:00:00.0","여성 문화행사"
"뮤지컬/오페라","가족오페라 <개구쟁이와 마법>","2020-07-17~2020-07-19","구로아트밸리예술극장","구로문화재단","초등학생이상","R석 5만원 / S석 4만원 / A석 3만원","","프랑스 작곡가 라벨이 선사하는  온 가족을 위한 환상의 동화 오페라  개구쟁이가 펼치는 신비한 마법의 세계로 여러분을 초대합니다!!","","https://www.guroartsvalley.or.kr/performance/commonView?guroart_menu_cd=U0007&seq_no=3396&perDisGubun=performance&currRow=1","http://culture.seoul.go.kr/data/ci/20200525200857.jpg","2020-05-25","기관","2020-07-17 00:00:00.0","2020-07-19 00:00:00.0","기타"
"뮤지컬/오페라","뮤지컬  <아랑가>","2020-05-22~2020-07-26","정동극장","정부문화포털","8세이상 관람가능","R석 66000원 S석 44000원","","","","http://ticket.interpark.com/Ticket/Goods/GoodsInfo.asp?GoodsCode=20003573","http://culture.seoul.go.krhttp://www.culture.go.kr/upload/rdf/20/05/show_202005610462467567.gif","2020-05-22","","2020-05-22 00:00:00.0","2020-07-26 00:00:00.0","기타"
"연극","청소년극 <영지>","2020-05-22~2020-06-14","국립극단 백성희장민호극장","정부문화포털","12세 이상 (초등학교 5학년 이상)","전석 3만원","","","","http://www.ntck.or.kr/ko/performance/info/256927","http://culture.seoul.go.krhttp://www.culture.go.kr/upload/rdf/20/04/show_2020042797076288.png","2020-05-22","","2020-05-22 00:00:00.0","2020-06-14 00:00:00.0","기타"
"콘서트","[강남구립못골도서관] 민간연계 시민대학 &amp;verbar; 그림이 묻고 고전이 답하다","2020-05-07~2020-07-09","강남구립못골도서관 2층 다목적강의실","송파구청","지역주민 누구나","무료","박혜성 길은영 김경집 김훈종","본 프로그램은 &amp;#39;코로나 19 바이러스&amp;#39; 확산 방지를 위한 일환으로 문화프로그램 정상 운영 전까지 온라인 화상플랫폼 ZOOM으로 진행됩니다.","포스터 작성자 : 노아름","https://library.gangnam.go.kr/mglib/menu/10373/program/30013/lectureDetail.do?currentPageNo=1&searchCategory=&manageCd=MD&searchStatusCd=&lectureIdx=18941","http://culture.seoul.go.kr/data/ci/20200520124351.jpg","2020-05-20","기관","2020-05-07 00:00:00.0","2020-07-09 00:00:00.0","기타"
"연극","밤이면 나는 우주로 간다","2020-06-05~2020-06-20","마포아트센터 플레이맥","마포구청","만 12세이상 관람가 [12세미만 입장불가]","전석 30000원","작 연출 황이선 CAST 조연출 여온 양경진 기획 박지인 무대 김혜지 조명 김용호 의상 김설 음악 류승현(RAINBOW99) 사진 이정훈(명랑사진관) 오퍼레이터 이훈희 정혜인  ep1. 윤광희 박영기 이인석 노준영 ep2. 오재균 구도균 조형일 심태영 ep3.김태완 박지은 오윤정 김현진 ep4. 김시영 문승배","공상집단 뚱딴지 2020년 정기공연 황이선 연출이 4년 만에 선보이는 창작 신작! &amp;#39;연극 “밤이면 나는 우주로 간다”는 매 작품마다 특유의 재치와 묵직한 울림을 선사하는 &amp;#39;황이선 연출의 오랜만에 만나는 창작 신작이다. 세상을 살아가는 우리의 마음을 잔잔하게 적셔줄 작품 &amp;#39;연극 “밤이면 나는 우주로 간다”는 &amp;#39;행성 간의 충돌을 앞둔 우주를 배경으로 한다. &amp;#39;충돌 직전을 다룬 4개의 에피소드로 구성되었으며 각 에피소드 모두 사람과 관계에 대해 따뜻한 시각으로 풀어낸다. 사람에게 상처 입고 상처 주면서도 사람에게 위로 받을 수밖에 없는 보드랍고 여린 우리들의 이야기다.","- EPISODE 1. 봄의 착륙 - EPISODE 2. 멸망을 향해 달리기 - EPISODE 3. 안녕 나쁜 시절 - EPISODE 4. 넥스트 노멀","화-금 19:30 / 토-일 16:00 [월요일공연없음] ","http://culture.seoul.go.kr/data/ci/20200519164816.jpg","2020-05-19","기관","2020-06-05 00:00:00.0","2020-06-20 00:00:00.0","기타"
"연극","음악극 [유리 가가린]","2020-06-17~2020-06-21","대학로 선돌극장","기타(일반시민)","만 15세 이상관람가","전석 30000원  청소년 50% 할인 - 15000원","강지완 송은지 엄태준 이현호 조혜선","RETRO-ASTRO-FANTASTIC-COMEDY! 1960년대 하늘을 동경했고 하늘에서 살다가 별이 되어버린 한 남자의 유니버셜 음악극이 펼쳐진다!  1960년대 동서 냉전으로 세상의 한 쪽과 다른 한 쪽에 장막이 있던 시절.  장막이 없는 하늘 위 창공 너머 저 멀리 우주를 향한 우주 경쟁시대.  인류 최초로 301킬로미터 밖의 지구 궤도를 선회한 인간 유리 가가린과 그의 주변 인물들 그리고 그의 역사적 비행과 지구를 둘러싼 세계사가 60년대 음악과 문학 등 대중문화 코드와 함께  밤 하늘의 별처럼 펼쳐진다.","","http://ticket.interpark.com/Ticket/Goods/GoodsInfo.asp?GoodsCode=20004026","http://culture.seoul.go.kr/data/ci/20200519161201.jpg","2020-05-19","기관","2020-06-17 00:00:00.0","2020-06-21 00:00:00.0","어린이/청소년 문화행사"
"뮤지컬/오페라","뮤지컬 <차미>","2020-04-14~2020-07-05","충무아트센터 중극장 블랙","중구청","8세 이상(초등학생 이상 관람가)","R석 66000원 S석 44000원","","&amp;quot;SNS속 &amp;#39;가짜&amp;#39;가 &amp;#39;진짜&amp;#39;로 나타났다!&amp;quot; 2020년 가장 신선하고 트렌디한 웰메이드 창작뮤지컬이 온다!","","http://www.caci.or.kr/Home/Perf/PerfInfoView.aspx?PerfId=1311&SrchType=16&SelectedYear=2020&SelectedMonth=4&SelectedDay=0","http://culture.seoul.go.kr/data/ci/20200518091600.jpg","2020-05-18","기관","2020-04-14 00:00:00.0","2020-07-05 00:00:00.0","기타"
"콘서트","[한성백제박물관] 사계콘서트 <여름>","2020-06-13~2020-07-25","박물관 강당(한성백제홀)","한성백제박물관","시민 누구나","없음","","한성백제박물관에서 개최하는 시민을 위한 무료 음악회 <사계콘서트 여름> 6~7월  티켓 없이 공연 시작 30분 전부터 선착순 입장. 연령 제한 없음  1회: 6.13(토) 매디슨 앙상블 &amp;#39;선물&amp;#39; 2회: 6.20(토) 베아오페라음악예술원 &amp;#39;해설이 있는 재미있는 오페라 -모차르트 <피가로의 결혼>-&amp;#39; 3회: 7.11(토) 전문연주단 크라제 &amp;#39;선율의 숲&amp;#39; 4회: 7.25(토) 더 피아니시모 음악예술학회 &amp;#39;건반 위의 노래&amp;#39;","","https://baekjemuseum.seoul.go.kr/module/index.jsp?mpid=SBM0403000000","http://culture.seoul.go.kr/data/ci/20200515155005.jpg","2020-05-15","기관","2020-06-13 00:00:00.0","2020-07-25 00:00:00.0","기타"
"클래식","클래식으로 읽는 명작 동화 - 정글북","2020-06-26~2020-06-26","구로아트밸리 예술극장","구로문화재단","만3세 이상","전석 무료(구로문화재단 홈페이지 사전신청)","바이올린(해설) 박소연 첼로 정진경 피아노 소현정  퍼커션 박요셉","구로문화재단 문화가 있는 날 명작 공연 시리즈 <책 읽는 예술극장> 첫번째!   키즈음악회 전문 해술가 &amp;#39;바이올리니스트 박소연&amp;#39; 의 스토리텔링으로 진행되는 <클래식으로 읽는 명작 동화>  클래식 음악으로 듣는 명작 동화 <정글북>의 신나고 흥겨운 무대가 펼쳐집니다.","","www.guroartsvalley.or.kr","http://culture.seoul.go.kr/data/ci/20200515101054.jpg","2020-05-15","기관","2020-06-26 00:00:00.0","2020-06-26 00:00:00.0","문화가 있는 날"
"국악","서울돈화문 국악당 온라인 콘서트 <LINK>","2020-04-27~2020-07-03","서울돈화문국악당 네이버TV 유튜브","서울돈화문국악당","전체 관람가","무료","","가장 가까이 국악을 만나는곳 서울돈화문국악당은 코로나19로 무대와 객석의 호흡이 잠시 멈춘 지금  온라인 콘서트 <LINK>를 통해 여러분과 소통하고자 합니다.","","https://sdtt.or.kr/user","http://culture.seoul.go.kr/data/ci/20200514111322.jpg","2020-05-14","기관","2020-04-27 00:00:00.0","2020-07-03 00:00:00.0","기타"
"연극","2020 연극 전태일 네 이름은 무엇이냐","2020-06-18~2020-06-20","구로아트밸리예술극장","구로문화재단","10세 이상","전석 2만원","","[전태일 50주기 맞이] 2020 연극 전태일 &amp;#39;네 이름은 무엇이냐&amp;#39;","","https://www.guroartsvalley.or.kr/performance/commonView?guroart_menu_cd=U0007&amp;seq_no=3391&amp;perDisGubun=performance&amp;currRow=1","http://culture.seoul.go.kr/data/ci/20200513144301.jpg","2020-05-13","기관","2020-06-18 00:00:00.0","2020-06-20 00:00:00.0","기타"
"클래식","브런치 콘서트 시즌3 <송영민의 브런치 콘서트>","2020-06-30~2020-06-30","노원문화예술회관 1층 대공연장","노원문화재단","8세 이상","전석 15000원","송영민 깊이있는 쇼팽부터 열정적인 라흐마니노프 숨소리까지 들리는 살롱음악회부터 풀오케스트라와 함께 하는 예술의 전당 콘서트홀무대까지. 탁월한 피아니스트이자 예술감독 기획자 해설자 사회자로 그 누구도 흉내낼 수 없는 자신만의 독특한 바이오그래피를 완성해 나가고 있는 우리시대의 젊은 예술가","드라마 ‘밀회’의 천재 피아니스트 이선재(배우 유아인)역의 실제 피아노 연주의 주인공 송영민이 진행하는 클래식 토크 콘서트","","https://www.nowonart.kr/kr/performance/view.php?param_url=https%3A%2F%2Fwww.nowonart.kr%2Fkr%2Fperformance%2Finfo.php%3F%26cate%3D%26skin%3D%26search_state%3D1%26search_syear%3D%26search_smonth%3D%26search_eyear%3D%26search_emonth%3D%26search_order%3D%26search_startPage%3D&idx=151","http://culture.seoul.go.kr/data/ci/20200513141438.jpg","2020-05-13","기관","2020-06-30 00:00:00.0","2020-06-30 00:00:00.0","여성 문화행사"
"클래식","2020 서울시향 브람스 피아노 협주곡 1번","2020-06-18~2020-06-19","롯데콘서트홀","서울시립교향악단","만 7세 이상","R 70000/ S 50000/ A 30000/ B 20000/ C 10000/","","브람스에게 베토벤은 가히 압도적인 존재였다. ‘등 뒤로 그의 발자국 소리를 듣는 것이 어떤 느낌인지 자네는 절대로 알 수 없을 걸세’라는 말을 그는 남긴 바 있다. 그의 거대한 피아노 협주곡 1번은 고귀하지만 상처 입은 마음을 열정적으로 분출시키는 비극적 교향곡처럼 시작되어서 이후 그 어디서도 찾아볼 수 없는 피아노 협주곡으로 진화했다. 현존하는 피아니스트 가운데 프란체스코 피에몬테시보다 이 작품을 열정적이고 시적으로 연주할 수 있는 사람은 많지 않다. 브람스의 ‘비극적’ 서곡에 연이어 이처럼 중량감 있는 작품을 감상할 관객들을 배려해서 티에리 피셔는 다음 순서로 베토벤의 전통에 훨씬 부담 없이 접근하는 작품인 작곡가 카미유 생상스의 음악을 선택했다. 브람스 협주곡과 같은 해에 완성된 이 곡은 협주곡과 달리 즐거움으로 가득 차 있다.","","https://www.seoulphil.or.kr/perf/view?perfNo=1194&langCd=ko&menuFlag=MFLG0001","http://culture.seoul.go.kr/data/ci/20200512180952.JPG","2020-05-12","기관","2020-06-18 00:00:00.0","2020-06-19 00:00:00.0","기타"
"국악","서울시국악관현악단 <2020 첫선음악회 &amp;#39;그들이 전하는 이야기 II&amp;#39;> 작품공모","2020-07-02~2020-07-08","세종문화회관 M씨어터","세종문화회관","전체","작품공모","","서울시국악관현악단 <2020 첫선음악회 &amp;#39;그들이 전하는 이야기 II&amp;#39;> 작품공모","","https://www.sejongpac.or.kr/portal/bbs/B0000001/view.do?nttId=43696&menuNo=200042 ","http://culture.seoul.go.kr/data/ci/20200512145426.jpg","2020-05-12","기관","2020-07-02 00:00:00.0","2020-07-08 00:00:00.0","기타"
"국악","서울돈화문국악당 온라인콘서트 <링크>","2020-04-27~2020-07-03","서울돈화문국악당","서울돈화문국악당","전체 관람가","무료","","10주동안 만나는 온라인 국악 콘서트. 돈화문국악당 인기 공연 재현 레전드 국악 Now 국악 World 국악 프로그램을 통해 만나는 다채로운 국악 공연.","","https://sdtt.or.kr/user/program","http://culture.seoul.go.kr/data/ci/20200420104446.jpg","2020-04-18","기관","2020-04-27 00:00:00.0","2020-07-03 00:00:00.0","기타"
"뮤지컬/오페라","뮤지컬 <차미>","2020-04-14~2020-07-05","충무아트센터 중극장 블랙","중구청","8세 이상(초등학생 이상 관람가)","R석 66000원 S석 44000원","","&quot;SNS속 &#39;가짜&#39;가 &#39;진짜&#39;로 나타났다!&quot; 2020년 가장 신선하고 트렌디한 웰메이드 창작뮤지컬이 온다!","","http://www.caci.or.kr/Home/Perf/PerfInfoView.aspx?PerfId=1311&SrchType=16&SelectedYear=2020&SelectedMonth=4&SelectedDay=0","http://culture.seoul.go.kr/data/ci/20200416111434.jpg","2020-04-16","기관","2020-04-14 00:00:00.0","2020-07-05 00:00:00.0","기타"
"뮤지컬/오페라","뮤지컬 <차미>","2020-04-14~2020-07-05","충무아트센터 중극장 블랙","중구청","8세 이상(초등학생 이상 관람가)","R석 66000원 S석 44000원","","&quot;SNS속 &#39;가짜&#39;가 &#39;진짜&#39;로 나타났다!&quot; 2020년 가장 신선하고 트렌디한 웰메이드 창작뮤지컬이 온다!","","http://www.caci.or.kr/Home/Perf/PerfInfoView.aspx?PerfId=1311&SrchType=16&SelectedYear=2020&SelectedMonth=4&SelectedDay=0","http://culture.seoul.go.kr/data/ci/20200312105717.jpg","2020-03-12","기관","2020-04-14 00:00:00.0","2020-07-05 00:00:00.0","기타"
"콘서트","[강남구립청담도서관] 엄지북(엄마는 지금 책읽는 중)","2020-01-17~2020-12-18","청담도서관 프로그램실","강남구청","책을 좋아하는 엄마들","무료","","[독서토론 동아리] 엄지북(엄마는 지금 책읽는 중)","","https://library.gangnam.go.kr/cdlib/menu/10933/program/30013/lectureDetail.do?currentPageNo=1&searchCategory=&manageCd=MK&searchStatusCd=&lectureIdx=16481","http://culture.seoul.go.kr/data/ci/20200118110439.jpg","2020-01-18","기관","2020-01-17 00:00:00.0","2020-12-18 00:00:00.0","기타"
"클래식","[아름다운 목요일 금호아시아나솔로이스츠] 금호아시아나솔로이스츠 X 바이츠 퀸텟 (II)","2020-12-25~2020-12-25","금호아트홀 연세","서대문구청","미취학 아동 입장불가","4만원","","[아름다운 목요일 금호아시아나솔로이스츠] 금호아시아나솔로이스츠 X 바이츠 퀸텟 (II)","","http://www.kumhoarthall.com/designer/skin/01/detail.html?p_idx=22449&s_idx=11&vwY=2020&vwM=12&se_idx=","http://culture.seoul.go.kr/data/ci/20200116154204.jpg","2020-01-16","기관","2020-12-25 00:00:00.0","2020-12-25 00:00:00.0","기타"
"클래식","[아름다운 목요일 금호아시아나솔로이스츠] 금호아시아나솔로이스츠 X 바이츠 퀸텟 (I)","2020-12-24~2020-12-24","금호아트홀 연세","서대문구청","미취학 아동 입장불가","4만원","","[아름다운 목요일 금호아시아나솔로이스츠] 금호아시아나솔로이스츠 X 바이츠 퀸텟 (I)","","http://www.kumhoarthall.com/designer/skin/01/detail.html?p_idx=22448&s_idx=11&vwY=2020&vwM=12&se_idx=","http://culture.seoul.go.kr/data/ci/20200116153955.jpg","2020-01-16","기관","2020-12-24 00:00:00.0","2020-12-24 00:00:00.0","기타"
"클래식","[아름다운 목요일 베토벤의 시간 ‘17‘20] 김다솔 Piano","2020-12-17~2020-12-17","금호아트홀 연세","서대문구청","미취학 아동 입장불가","4만원","","[아름다운 목요일 베토벤의 시간 ‘17‘20] 김다솔 Piano","","http://www.kumhoarthall.com/designer/skin/01/detail.html?p_idx=22447&s_idx=11&vwY=2020&vwM=12&se_idx=","http://culture.seoul.go.kr/data/ci/20200116153745.jpg","2020-01-16","기관","2020-12-17 00:00:00.0","2020-12-17 00:00:00.0","기타"
"클래식","[아름다운 목요일 금호아트홀 상주음악가] 이지윤 Violin 헨리 크레이머 Piano ˝Adventure ＆ Fantasy˝","2020-12-10~2020-12-10","금호아트홀 연세","서대문구청","미취학 아동 입장불가","4만원","","[아름다운 목요일 금호아트홀 상주음악가] 이지윤 Violin 헨리 크레이머 Piano ˝Adventure ＆ Fantasy˝","","http://www.kumhoarthall.com/designer/skin/01/detail.html?p_idx=22446&s_idx=11&vwY=2020&vwM=12&se_idx=","http://culture.seoul.go.kr/data/ci/20200116153123.jpg","2020-01-16","기관","2020-12-10 00:00:00.0","2020-12-10 00:00:00.0","기타"
"클래식","[아름다운 목요일 세 도시 이야기:첼로] 이정란 Cello 일리야 라쉬코프스키 Piano","2020-12-03~2020-12-03","금호아트홀 연세","서대문구청","미취학 아동 입장불가","4만원","","[아름다운 목요일 세 도시 이야기:첼로] 이정란 Cello 일리야 라쉬코프스키 Piano","","http://www.kumhoarthall.com/designer/skin/01/detail.html?p_idx=22445&s_idx=11&vwY=2020&vwM=12&se_idx=","http://culture.seoul.go.kr/data/ci/20200116152854.jpg","2020-01-16","기관","2020-12-03 00:00:00.0","2020-12-03 00:00:00.0","기타"
"클래식","[아름다운 목요일 베토벤의 시간 ‘17‘20] 손민수 Piano","2020-11-26~2020-11-26","금호아트홀 연세","서대문구청","미취학 아동 입장불가","4만원","","[아름다운 목요일 베토벤의 시간 ‘17‘20] 손민수 Piano","","http://www.kumhoarthall.com/designer/skin/01/detail.html?p_idx=22444&s_idx=11&vwY=2020&vwM=11&se_idx=","http://culture.seoul.go.kr/data/ci/20200116152636.jpg","2020-01-16","기관","2020-11-26 00:00:00.0","2020-11-26 00:00:00.0","기타"
"클래식","[아름다운 목요일 금호 Exclusive] 로버트 레빈 Piano","2020-11-19~2020-11-19","금호아트홀 연세","서대문구청","미취학 아동 입장불가","8만원","","[아름다운 목요일 금호 Exclusive] 로버트 레빈 Piano","","http://www.kumhoarthall.com/designer/skin/01/detail.html?p_idx=22443&s_idx=11&vwY=2020&vwM=11&se_idx=","http://culture.seoul.go.kr/data/ci/20200116152349.jpg","2020-01-16","기관","2020-11-19 00:00:00.0","2020-11-19 00:00:00.0","기타"
"클래식","[아름다운 목요일 인터내셔널 마스터즈 시리즈] 스베틀린 루세브 Violin","2020-11-12~2020-11-12","금호아트홀 연세","서대문구청","미취학 아동 입장불가","6만원","","[아름다운 목요일 인터내셔널 마스터즈 시리즈] 스베틀린 루세브 Violin","","http://www.kumhoarthall.com/designer/skin/01/detail.html?p_idx=22442&s_idx=11&vwY=2020&vwM=11&se_idx=","http://culture.seoul.go.kr/data/ci/20200116151428.jpg","2020-01-16","기관","2020-11-12 00:00:00.0","2020-11-12 00:00:00.0","기타"
"클래식","[아름다운 목요일 앙상블 로드] 트리오 킴","2020-11-05~2020-11-05","금호아트홀 연세","서대문구청","미취학 아동 입장불가","4만원","","[아름다운 목요일 앙상블 로드] 트리오 킴","","http://www.kumhoarthall.com/designer/skin/01/detail.html?p_idx=22440&s_idx=11&vwY=2020&vwM=11&se_idx=","http://culture.seoul.go.kr/data/ci/20200116151152.jpg","2020-01-16","기관","2020-11-05 00:00:00.0","2020-11-05 00:00:00.0","기타"
"클래식","[아름다운 목요일 스페셜 콘서트] 2019 윤이상국제음악콩쿠르 박성용영재특별상 수상자 음악회: 임윤찬 Piano","2020-10-29~2020-10-29","금호아트홀 연세","서대문구청","미취학 아동 입장불가","3만원","","[아름다운 목요일 스페셜 콘서트] 2019 윤이상국제음악콩쿠르 박성용영재특별상 수상자 음악회: 임윤찬 Piano","","http://www.kumhoarthall.com/designer/skin/01/detail.html?p_idx=22441&s_idx=11&vwY=2020&vwM=10&se_idx=","http://culture.seoul.go.kr/data/ci/20200116150921.jpg","2020-01-16","기관","2020-10-29 00:00:00.0","2020-10-29 00:00:00.0","기타"
"클래식","[아름다운 목요일 인터내셔널 마스터즈 시리즈] 데네시 바룐 Piano","2020-10-22~2020-10-22","금호아트홀 연세","서대문구청","미취학 아동 입장불가","6만원","","[아름다운 목요일 인터내셔널 마스터즈 시리즈] 데네시 바룐 Piano","","http://www.kumhoarthall.com/designer/skin/01/detail.html?p_idx=22439&s_idx=11&vwY=2020&vwM=10&se_idx=","http://culture.seoul.go.kr/data/ci/20200116150345.jpg","2020-01-16","기관","2020-10-22 00:00:00.0","2020-10-22 00:00:00.0","기타"
"클래식","[아름다운 목요일 베토벤의 시간 ‘17‘20] Happy Birthday Ludwig (III)","2020-10-15~2020-10-15","금호아트홀 연세","서대문구청","미취학 아동 입장불가","5만원","","[아름다운 목요일 베토벤의 시간 ‘17‘20] Happy Birthday Ludwig (III)","","http://www.kumhoarthall.com/designer/skin/01/detail.html?p_idx=22438&s_idx=11&vwY=2020&vwM=10&se_idx=","http://culture.seoul.go.kr/data/ci/20200116150108.jpg","2020-01-16","기관","2020-10-15 00:00:00.0","2020-10-15 00:00:00.0","기타"
"클래식","[아름다운 목요일 베토벤의 시간 ‘17‘20] Happy Birthday Ludwig (II)","2020-10-14~2020-10-14","금호아트홀 연세","서대문구청","미취학 아동 입장불가","5만원","","[아름다운 목요일 베토벤의 시간 ‘17‘20] Happy Birthday Ludwig (II)","","http://www.kumhoarthall.com/designer/skin/01/detail.html?p_idx=22437&s_idx=11&vwY=2020&vwM=10&se_idx=","http://culture.seoul.go.kr/data/ci/20200116145743.jpg","2020-01-16","기관","2020-10-14 00:00:00.0","2020-10-14 00:00:00.0","기타"
"클래식","[아름다운 목요일 베토벤의 시간 ‘17‘20] Happy Birthday Ludwig (I)","2020-10-13~2020-10-13","금호아트홀 연세","서대문구청","미취학 아동 입장불가","5만원","","[아름다운 목요일 베토벤의 시간 ‘17‘20] Happy Birthday Ludwig (I)","","http://www.kumhoarthall.com/designer/skin/01/detail.html?p_idx=22436&s_idx=11&vwY=2020&vwM=10&se_idx=","http://culture.seoul.go.kr/data/ci/20200116145535.jpg","2020-01-16","기관","2020-10-13 00:00:00.0","2020-10-13 00:00:00.0","기타"
"클래식","[아름다운 목요일 인터내셔널 마스터즈 시리즈] 츠츠미 츠요시 Cello","2020-09-24~2020-09-24","금호아트홀 연세","서대문구청","미취학 아동 입장불가","6만원","","[아름다운 목요일 인터내셔널 마스터즈 시리즈] 츠츠미 츠요시 Cello","","http://www.kumhoarthall.com/designer/skin/01/detail.html?p_idx=22435&s_idx=11&vwY=2020&vwM=09&se_idx=","http://culture.seoul.go.kr/data/ci/20200116145011.jpg","2020-01-16","기관","2020-09-24 00:00:00.0","2020-09-24 00:00:00.0","기타"
"클래식","[아름다운 목요일 스페셜 콘서트] 퀸 엘리자베스 콩쿠르 위너 (II)","2020-09-17~2020-09-17","금호아트홀 연세","서대문구청","미취학 아동 입장불가","4만원","","[아름다운 목요일 스페셜 콘서트] 퀸 엘리자베스 콩쿠르 위너 (II)","","http://www.kumhoarthall.com/designer/skin/01/detail.html?p_idx=22434&s_idx=11&vwY=2020&vwM=09&se_idx=","http://culture.seoul.go.kr/data/ci/20200116144816.jpg","2020-01-16","기관","2020-09-17 00:00:00.0","2020-09-17 00:00:00.0","기타"
"클래식","[아름다운 목요일 스페셜 콘서트] 퀸 엘리자베스 콩쿠르 위너 (I)","2020-09-10~2020-09-10","금호아트홀 연세","서대문구청","미취학 아동 입장불가","4만원","","[아름다운 목요일 스페셜 콘서트] 퀸 엘리자베스 콩쿠르 위너 (I)","","http://www.kumhoarthall.com/designer/skin/01/detail.html?p_idx=22433&s_idx=11&vwY=2020&vwM=09&se_idx=","http://culture.seoul.go.kr/data/ci/20200116144538.jpg","2020-01-16","기관","2020-09-10 00:00:00.0","2020-09-10 00:00:00.0","기타"
"클래식","[아름다운 목요일 금호아트홀 상주음악가] 이지윤 Violin 프랑크 두프리 Piano ˝Sensation˝","2020-08-27~2020-08-27","금호아트홀 연세","서대문구청","미취학 아동 입장불가","4만원","","[아름다운 목요일 금호아트홀 상주음악가] 이지윤 Violin 프랑크 두프리 Piano ˝Sensation˝","","http://www.kumhoarthall.com/designer/skin/01/detail.html?p_idx=22431&s_idx=11&vwY=2020&vwM=08&se_idx=","http://culture.seoul.go.kr/data/ci/20200116144318.jpg","2020-01-16","기관","2020-08-27 00:00:00.0","2020-08-27 00:00:00.0","기타"
"클래식","[아름다운 목요일 세 도시 이야기:첼로] 문태국 Cello 한지호 Piano","2020-08-20~2020-08-20","금호아트홀 연세","서대문구청","미취학 아동 입장불가","4만원","","[아름다운 목요일 세 도시 이야기:첼로] 문태국 Cello 한지호 Piano","","http://www.kumhoarthall.com/designer/skin/01/detail.html?p_idx=22430&s_idx=11&vwY=2020&vwM=08&se_idx=","http://culture.seoul.go.kr/data/ci/20200116144038.jpg","2020-01-16","기관","2020-08-20 00:00:00.0","2020-08-20 00:00:00.0","기타"
"클래식","[아름다운 목요일 클래식 바이브] 김우연 Clarinet","2020-07-16~2020-07-16","금호아트홀 연세","서대문구청","미취학 아동 입장불가","4만원","","[아름다운 목요일 클래식 바이브] 김우연 Clarinet","","http://www.kumhoarthall.com/designer/skin/01/detail.html?p_idx=22429&s_idx=11&vwY=2020&vwM=07&se_idx=","http://culture.seoul.go.kr/data/ci/20200116142558.jpg","2020-01-16","기관","2020-07-16 00:00:00.0","2020-07-16 00:00:00.0","기타"
"클래식","[아름다운 목요일 클래식 바이브] 박종해 Piano","2020-07-09~2020-07-09","금호아트홀 연세","서대문구청","미취학 아동 입장불가","4만원","","[아름다운 목요일 클래식 바이브] 박종해 Piano","","http://www.kumhoarthall.com/designer/skin/01/detail.html?p_idx=22428&s_idx=11&vwY=2020&vwM=07&se_idx=","http://culture.seoul.go.kr/data/ci/20200116142407.jpg","2020-01-16","기관","2020-07-09 00:00:00.0","2020-07-09 00:00:00.0","기타"
"클래식","[아름다운 목요일 클래식 바이브] 칼라치 스트링 콰르텟","2020-07-02~2020-07-02","금호아트홀 연세","서대문구청","미취학 아동 입장불가","4만원","","[아름다운 목요일 클래식 바이브] 칼라치 스트링 콰르텟","","http://www.kumhoarthall.com/designer/skin/01/detail.html?p_idx=22427&s_idx=11&vwY=2020&vwM=07&se_idx=","http://culture.seoul.go.kr/data/ci/20200116142156.jpg","2020-01-16","기관","2020-07-02 00:00:00.0","2020-07-02 00:00:00.0","기타"
"클래식","[아름다운 목요일 인터내셔널 마스터즈 시리즈] 폴 메예르 Clarinet 에릭 르 사주 Piano","2020-06-25~2020-06-25","금호아트홀 연세","서대문구청","미취학 아동 입장불가","6만원","","[아름다운 목요일 인터내셔널 마스터즈 시리즈] 폴 메예르 Clarinet 에릭 르 사주 Piano","","http://www.kumhoarthall.com/designer/skin/01/detail.html?p_idx=22426&s_idx=11&vwY=2020&vwM=06&se_idx=","http://culture.seoul.go.kr/data/ci/20200116141935.jpg","2020-01-16","기관","2020-06-25 00:00:00.0","2020-06-25 00:00:00.0","기타"
"클래식","[아름다운 목요일 베토벤의 시간 ‘17‘20] 프랑수아 프레데리크 기 Piano","2020-06-18~2020-06-18","금호아트홀 연세","서대문구청","미취학 아동 입장불가","[아름다운 목요일 베토벤의 시간 ‘17‘20] 프랑수아 프레데리크 기 Piano","","[아름다운 목요일 베토벤의 시간 ‘17‘20] 프랑수아 프레데리크 기 Piano","","http://www.kumhoarthall.com/designer/skin/01/detail.html?p_idx=22425&s_idx=11&vwY=2020&vwM=06&se_idx=","http://culture.seoul.go.kr/data/ci/20200116141625.jpg","2020-01-16","기관","2020-06-18 00:00:00.0","2020-06-18 00:00:00.0","기타"
"클래식","[아름다운 목요일 베토벤의 시간 ‘17‘20] 프랑수아 프레데리크 기 Piano","2020-06-11~2020-06-11","금호아트홀 연세","서대문구청","미취학 아동 입장불가","5만원","","[아름다운 목요일 베토벤의 시간 ‘17‘20] 프랑수아 프레데리크 기 Piano","","http://www.kumhoarthall.com/designer/skin/01/detail.html?p_idx=22424&s_idx=11&vwY=2020&vwM=06&se_idx=","http://culture.seoul.go.kr/data/ci/20200116141329.jpg","2020-01-16","기관","2020-06-11 00:00:00.0","2020-06-11 00:00:00.0","기타"
"뮤지컬/오페라","오페라의 유령 내한공연","2020-03-14~2020-06-26","블루스퀘어 인터파크홀 (구 삼성전자홀)","용산구청","8세이상","VIP석 170000원 R석 140000원 S석 110000원 A석 90000원 B석 60000원","","오페라 유령 내한 공연","","http://www.bluesquare.kr/Goods/PerformanceDetail.asp?PlayNo=148719&m_menu=performance&s_menu=info","http://culture.seoul.go.kr/data/ci/20191205110847.jpg","2019-12-05","기관","2020-03-14 00:00:00.0","2020-06-26 00:00:00.0","문화가 있는 날"
"국악","국립국악관현악단과 함께하는 <관객음악학교>","2018-11-01~2020-06-30","국립극장 (서울특별시 중구 장충단로 59 국립극장)","기타(일반시민)","만 20세 이상의 성인","아마추어 관현악단: 300000원 악기포커스 - 해금: 400000원 19-20 관객 관현악단: 500000원","","국립국악관현악단과 함께 국악기를 배우고 연주하는 매력을 느껴보세요! 국악에 더 많은 재미를 느낄 수 있도록 풍성한 프로그램을 준비하였습니다.","","https://www.ntok.go.kr/Community/BoardNotice/Details?articleId=174243","http://culture.seoul.go.kr/data/ci/20190927104333.jpg","2019-09-27","기관","2018-11-01 00:00:00.0","2020-06-30 00:00:00.0","기타"
"국악","국악쇼 썬앤문","2017-11-10~2020-08-31","서울중구정동길3 경향아트힐 2층 썬앤문 전용관","","5세이상","VIP석 6만원  R석 5만원  S석 4만원","가야금 병창 - 박나현 서은미  대금- 김한송이 김하연  아쟁 - 조누리 엄희정  해금 - 윤지우  신숙경  장구 - 이미지 선소이  무용- 노원혜 강한나","박칼린 연출 국악쇼 썬앤문  전통적 가치와 현대적 감각의 조화가 이루어진 국악과 일렉트로닉 록 팝 등  다양한 장르의 음악과 홀로그램 퍼포먼스가 결합한 융복합 공연!  국악 가락과 파워풀한 퍼포먼스에 홀로그램 영상과 환상적인 조명이 어우러져  무대를 휘감는 뉴미디어 아트의 진수를 느낄 수 있으며 관객이 일상의 물건으로 소리를 만들고  영상에 소리를 입혀보는 효과음(Foley) 관객참여형 퍼포먼스!   한국의 전통적인 음악의 새로운 시도로 한국인 뿐만 아니라 외국인들도 함께 느끼며 즐길 수 있는 국악공연!  쇼 무대 중심이 화려한 국악퍼포먼스 썬앤문!   편견을 깨고 패러다임을 바꾼 대체 불가능한 국악쇼","","http://showsunnmoon.com/","http://culture.seoul.go.kr/data/ci/20190830103839.jpg","2019-08-30","시민","2017-11-10 00:00:00.0","2020-08-31 00:00:00.0","기타"
"국악","2020 완창판소리 6월","2020-06-20~2020-06-20","하늘극장","중구청","8세 이상 관람가","전석 20000원","","기간2020-06-20 ~ 2020-06-20장소하늘극장장르국악주최국립극장시간15:00관람연령8세 이상 관람가문의02-2280-4114소득공제신용?직불카드 결제 / 현금영수증 신청시 가능","","https://www.ntok.go.kr/kr/Ticket/Performance/Details?performanceId=265589","http://culture.seoul.go.kr/data/ci/20190827142823.jpg","2019-08-27","기관","2020-06-20 00:00:00.0","2020-06-20 00:00:00.0","기타"
"국악","관현악시리즈Ⅳ <2020 겨레의 노래뎐>","2020-06-17~2020-06-17","롯데콘서트홀","중구청","8세 이상 관람가","R 50000원 / S 30000원 / A 20000원","","기간2020-06-17 ~ 2020-06-17장소롯데콘서트홀장르국악관람시간100분주최국립극장시간20:00관람연령8세 이상 관람가문의02-2280-4114소득공제신용?직불카드 결제 / 현금영수증 신청시 가능","","https://www.ntok.go.kr/kr/Ticket/Performance/Details?performanceId=265572","http://culture.seoul.go.kr/data/ci/20190827142548.jpg","2019-08-27","기관","2020-06-17 00:00:00.0","2020-06-17 00:00:00.0","기타"
"무용","타오 댄스 시어터 <4 & 9>","2020-06-12~2020-06-14","달오름극장","중구청","12세 이상 관람가","R 50000원 / S 35000원","","기간2020-06-12 ~ 2020-06-14장소달오름극장장르무용관람시간70분 (중간휴식 포함)주최국립극장시간금 20:00 / 토일 15:00관람연령12세 이상 관람가문의02-2280-4114소득공제신용?직불카드 결제 / 현금영수증 신청시 가능","","https://www.ntok.go.kr/kr/Ticket/Performance/Details?performanceId=265611","http://culture.seoul.go.kr/data/ci/20190827142232.jpg","2019-08-27","기관","2020-06-12 00:00:00.0","2020-06-14 00:00:00.0","기타"
"콘서트","요리하는 마술사","2014-09-13~2025-06-30","맛있는 극장","www.joynchohee.com","24개월 이상","평일 5900원 주말 6900원","마술사 김태훈 마술사 조희 마술사 이원혁 마술사 윤미연 마술사 안영진 마술사 고태선","쿠키만들기 체험과 마술공연이 함께하는 쿠킹매직컬 콘서트!!","1.쿠키만들기 체험 2.직접 마술 배우기 체험 3.신기한 마술공연까지 오감만족 이색 체험 매직컬 요리하는 마술사 요술사 입니다!!","www.joynchohee.com","http://culture.seoul.go.kr/data/ci/20150613172155.jpg","2015-06-13","기관","2014-09-13 00:00:00.0","2025-06-30 00:00:00.0","어린이/청소년 문화행사"
"콘서트","페인터즈: 히어로","2010-10-01~2020-12-31","서울극장 5층(종로) / 낙원상가 4층(인사동) / 한라아트홀 2층(제주)","","남녀노소 누구나 즐길 수 있는 드로잉 공연 24개월 이상 관람 가능","A석 - 40000원 / S석 - 50000원 / V석 - 60000원","지난 5년 간 전 세계인의 상상력과 창의력을 자극한 페인터즈:히어로! 80분간 쉴 새 없이 거듭되는 기발한 반전은 신선한 재미와 감동을 선사해 드릴 것입니다. 4명의 페인터즈가 그려내는 좌충우돌 이야기 속에서 지금껏 보지 못한 최고의 걸작을 만나보세요.","페인터즈: 히어로는 드로잉이라는 소재를 이용하여 어린 시절 꿈꿔오던 영웅들을 코미디 마임으로 유쾌하게 표현한 새로운 형식의 퓨전 아트 퍼포먼스입니다.","[액션드로잉: 히어로]를 탄생시킨 (주)펜타토닉이 제주전용관 오픈과 해외시장 진출의 성공을 기반으로 [페인터즈: 히어로]를 야심차게 완성했습니다. 더욱 강력해진 무대로 더욱 업그레이드된 감동과 즐거움을 느낄 수 있을 것입니다","www.thepainters.co.kr","http://culture.seoul.go.kr/data/ci/20150612141411.jpg","2015-06-12","시민","2010-10-01 00:00:00.0","2020-12-31 00:00:00.0","기타"