"서비스구분","서비스ID","대분류명","소분류명","서비스상태","서비스명","결제방법","장소명","서비스대상","바로가기URL","장소X좌표","장소Y좌표","서비스개시시작일시","서비스개시종료일시","접수시작일시","접수종료일시","지역명"
"자체","S200102151145906650","시설대관","기타","접수중","도봉구 방학3동 주민센터 은행나루 어울터","유료(요금안내문의)","도봉구 방학3동주민센터","제한없음","http://yeyak.seoul.go.kr/reservation/view.web?rsvsvcid=S200102151145906650","","","2020-01-02 00:00:00.0","2020-12-31 00:00:00.0","2020-01-02 09:00:00.0","2020-12-31 18:00:00.0","도봉구"
"자체","S200102151559987242","시설대관","회의실","접수중","도봉구 방학3동 주민센터 은행나루 채움","유료(요금안내문의)","도봉구 방학3동주민센터","제한없음","http://yeyak.seoul.go.kr/reservation/view.web?rsvsvcid=S200102151559987242","","","2020-01-02 00:00:00.0","2020-12-31 00:00:00.0","2020-01-02 09:00:00.0","2020-12-31 18:00:00.0","도봉구"
"자체","S200103144759014429","시설대관","강당","접수중","도봉구 도봉구민회관 대강당","유료(요금안내문의)","도봉구민회관","제한없음","http://yeyak.seoul.go.kr/reservation/view.web?rsvsvcid=S200103144759014429","","","2020-01-03 00:00:00.0","2020-12-31 00:00:00.0","2020-01-03 09:00:00.0","2020-12-31 18:00:00.0","도봉구"
"자체","S200103152403091827","시설대관","기타","접수중","도봉구 도봉구민회관 소공연장","유료(요금안내문의)","도봉구민회관","제한없음","http://yeyak.seoul.go.kr/reservation/view.web?rsvsvcid=S200103152403091827","","","2020-01-03 00:00:00.0","2020-12-31 00:00:00.0","2020-01-03 09:00:00.0","2020-12-31 18:00:00.0","도봉구"
"자체","S200103152809440265","시설대관","회의실","접수중","도봉구 도봉구민회관 회의실","유료(요금안내문의)","도봉구민회관","제한없음","http://yeyak.seoul.go.kr/reservation/view.web?rsvsvcid=S200103152809440265","","","2020-01-03 00:00:00.0","2020-12-31 00:00:00.0","2020-01-03 09:00:00.0","2020-12-31 18:00:00.0","도봉구"
"자체","S200103164558333284","시설대관","기타","접수중","도봉구 창동역 가족카페 (너른마루)","유료(요금안내문의)","창동역 가족카페 너른마루","제한없음","http://yeyak.seoul.go.kr/reservation/view.web?rsvsvcid=S200103164558333284","","","2020-01-03 00:00:00.0","2020-12-31 00:00:00.0","2020-01-03 10:00:00.0","2020-12-31 18:00:00.0","도봉구"
"자체","S200103164115197120","시설대관","기타","접수중","도봉구 창동역 북카페 (행복한 이야기) 세미나실","유료(요금안내문의)","창동역 북카페(행복한 이야기)","제한없음","http://yeyak.seoul.go.kr/reservation/view.web?rsvsvcid=S200103164115197120","","","2020-01-03 00:00:00.0","2020-12-31 00:00:00.0","2020-01-03 09:00:00.0","2020-12-31 18:00:00.0","도봉구"
"자체","S200108164018882879","시설대관","다목적실","접수중","학마을도서관 다목적실","유료(요금안내문의)","학마을도서관","제한없음","http://yeyak.seoul.go.kr/reservation/view.web?rsvsvcid=S200108164018882879","37.66216005827052","127.0278305835393","2020-01-08 00:00:00.0","2020-12-31 00:00:00.0","2020-01-08 09:00:00.0","2020-12-31 18:00:00.0","도봉구"
"자체","S191231170828748152","시설대관","강의실","접수중","도봉구 도봉1동 주민센터 교양강좌실","유료","도봉구 도봉1동주민센터 ","제한없음","http://yeyak.seoul.go.kr/reservation/view.web?rsvsvcid=S191231170828748152","37.67869013737521","127.04341246294717","2020-01-01 00:00:00.0","2020-12-31 00:00:00.0","2020-01-02 09:00:00.0","2020-12-31 18:00:00.0","도봉구"
"자체","S200102100547589994","시설대관","강당","접수중","도봉구 도봉1동 주민센터 대강당","유료","도봉구 도봉1동주민센터 ","제한없음","http://yeyak.seoul.go.kr/reservation/view.web?rsvsvcid=S200102100547589994","37.67869013737521","127.04341246294717","2020-01-02 00:00:00.0","2020-12-31 00:00:00.0","2020-01-02 09:00:00.0","2020-12-31 18:00:00.0","도봉구"
"자체","S200102165245606153","시설대관","회의실","접수중","도봉구 쌍문3동 주민센터 회의실(2층)","유료","도봉구 쌍문3동주민센터 회의실(2층)","제한없음","http://yeyak.seoul.go.kr/reservation/view.web?rsvsvcid=S200102165245606153","","","2020-01-02 00:00:00.0","2020-12-31 00:00:00.0","2020-01-02 09:00:00.0","2020-12-31 18:00:00.0","도봉구"
"자체","S200102171411848363","시설대관","회의실","접수중","도봉구 쌍문4동 주민센터 회의실(3층)","유료","도봉구 쌍문4동 주민센터","제한없음","http://yeyak.seoul.go.kr/reservation/view.web?rsvsvcid=S200102171411848363","","","2020-01-02 00:00:00.0","2020-12-31 00:00:00.0","2020-01-02 00:00:00.0","2020-12-31 18:00:00.0","도봉구"
"자체","S200102172147322375","시설대관","강당","접수중","도봉구 쌍문4동 주민센터 강당","유료","도봉구 쌍문4동 주민센터","제한없음","http://yeyak.seoul.go.kr/reservation/view.web?rsvsvcid=S200102172147322375","","","2020-01-02 00:00:00.0","2020-12-31 00:00:00.0","2020-01-02 09:00:00.0","2020-12-31 18:00:00.0","도봉구"
"자체","S200102152256600260","시설대관","강당","접수중","도봉구 쌍문1동 주민센터 대강당(3층) 대관","유료","도봉구 쌍문1동 자치회관","제한없음","http://yeyak.seoul.go.kr/reservation/view.web?rsvsvcid=S200102152256600260","","","2020-01-02 00:00:00.0","2020-12-31 00:00:00.0","2020-01-02 00:00:00.0","2020-12-31 18:00:00.0","도봉구"
"자체","S200102152740157742","시설대관","회의실","접수중","도봉구 쌍문1동 주민센터 회의실 (2층)","유료","도봉구 쌍문1동 자치회관","제한없음","http://yeyak.seoul.go.kr/reservation/view.web?rsvsvcid=S200102152740157742","","","2020-01-02 00:00:00.0","2020-12-31 00:00:00.0","2020-01-02 09:00:00.0","2020-12-31 18:00:00.0","도봉구"
"자체","S200103153407578870","시설대관","기타","접수중","도봉구청 실내체육관","유료(요금안내문의)","도봉구청","제한없음","http://yeyak.seoul.go.kr/reservation/view.web?rsvsvcid=S200103153407578870","37.668716668297535","127.04713344067315","2020-01-03 00:00:00.0","2020-12-31 00:00:00.0","2020-01-03 09:00:00.0","2020-12-31 18:00:00.0","도봉구"
"자체","S200103153737241702","시설대관","기타","접수중","도봉구청 자운봉홀(16층 다목적회의실)","유료(요금안내문의)","도봉구청","제한없음","http://yeyak.seoul.go.kr/reservation/view.web?rsvsvcid=S200103153737241702","37.668716668297535","127.04713344067315","2020-01-03 00:00:00.0","2020-12-31 00:00:00.0","2020-01-03 09:00:00.0","2020-12-31 18:00:00.0","도봉구"
"자체","S200103154000528151","시설대관","회의실","접수중","도봉구청 여성건강카페 화음 ","유료(요금안내문의)","도봉구청","제한없음","http://yeyak.seoul.go.kr/reservation/view.web?rsvsvcid=S200103154000528151","37.668716668297535","127.04713344067315","2020-01-03 00:00:00.0","2020-12-31 00:00:00.0","2020-01-03 09:00:00.0","2020-12-31 18:00:00.0","도봉구"
"자체","S200220144317537861","시설대관","강당","접수중","도봉구청 선인봉홀(2층 대강당)","유료(요금안내문의)","도봉구청","제한없음","http://yeyak.seoul.go.kr/reservation/view.web?rsvsvcid=S200220144317537861","37.668716668297535","127.04713344067315","2020-01-02 00:00:00.0","2020-12-31 00:00:00.0","2020-01-02 00:00:00.0","2020-12-30 22:00:00.0","도봉구"
"자체","S200102174247935196","시설대관","강의실","접수중","도봉구 창4동 주민센터 대강당(4층)","유료(요금안내문의)","도봉구 창4동주민센터","제한없음","http://yeyak.seoul.go.kr/reservation/view.web?rsvsvcid=S200102174247935196","37.6522376768","127.0515379735","2020-01-02 00:00:00.0","2020-12-31 00:00:00.0","2020-01-02 09:00:00.0","2020-12-31 18:00:00.0","도봉구"
"자체","S200102174555626144","시설대관","강의실","접수중","도봉구 창4동 주민센터 교양강좌실(5층)","유료(요금안내문의)","도봉구 창4동주민센터","제한없음","http://yeyak.seoul.go.kr/reservation/view.web?rsvsvcid=S200102174555626144","37.6522376768","127.0515379735","2020-01-02 00:00:00.0","2020-12-31 00:00:00.0","2020-01-02 09:00:00.0","2020-12-31 18:00:00.0","도봉구"
"자체","S200219104153137648","시설대관","다목적실","접수중","창4동 주민센터 다목적실(공연연습장)","유료(요금안내문의)","도봉구 창4동주민센터","제한없음","http://yeyak.seoul.go.kr/reservation/view.web?rsvsvcid=S200219104153137648","37.6522376768","127.0515379735","2020-01-02 00:00:00.0","2020-12-31 00:00:00.0","2020-01-02 00:00:00.0","2020-12-30 00:00:00.0","도봉구"
"자체","S200102165923738724","시설대관","강당","접수중","도봉구 쌍문3동 주민센터 강당(3층)","유료","도봉구 쌍문3동주민센터 강당(3층)","제한없음","http://yeyak.seoul.go.kr/reservation/view.web?rsvsvcid=S200102165923738724","","","2020-01-02 00:00:00.0","2020-12-31 00:00:00.0","2020-01-02 09:00:00.0","2020-12-31 18:00:00.0","도봉구"
"자체","S200103164845431623","시설대관","기타","접수중","도봉구 함석헌 기념관 세미나실","무료","도봉구 함석헌 기념관","제한없음","http://yeyak.seoul.go.kr/reservation/view.web?rsvsvcid=S200103164845431623","37.6529609858","127.0347941363","2020-01-03 00:00:00.0","2020-12-31 00:00:00.0","2020-01-03 09:00:00.0","2020-12-31 18:00:00.0","도봉구"
"자체","S200108152847306289","시설대관","강당","접수중","도봉기적의도서관 강당","유료(요금안내문의)","도봉기적의도서관","제한없음","http://yeyak.seoul.go.kr/reservation/view.web?rsvsvcid=S200108152847306289","37.680802969361835","127.05013388329917","2020-01-02 00:00:00.0","2020-12-31 00:00:00.0","2020-01-02 09:00:00.0","2020-12-31 18:00:00.0","도봉구"
"자체","S200108154418758242","시설대관","강당","접수중","도봉기적의도서관 강의실1","유료(요금안내문의)","도봉기적의도서관","제한없음","http://yeyak.seoul.go.kr/reservation/view.web?rsvsvcid=S200108154418758242","37.680802969361835","127.05013388329917","2020-01-08 00:00:00.0","2020-12-31 00:00:00.0","2020-01-08 09:00:00.0","2020-12-31 18:00:00.0","도봉구"
"자체","S200108154919592912","시설대관","강당","접수중","도봉기적의도서관 강의실2","유료(요금안내문의)","도봉기적의도서관","제한없음","http://yeyak.seoul.go.kr/reservation/view.web?rsvsvcid=S200108154919592912","37.680802969361835","127.05013388329917","2020-01-08 00:00:00.0","2020-12-31 00:00:00.0","2020-01-08 09:00:00.0","2020-12-31 18:00:00.0","도봉구"
"자체","S200102173657671800","시설대관","회의실","접수중","도봉구 창3동 주민센터 2층 회의실","유료","도봉구 창3동 주민센터 2층 교양강좌실","제한없음","http://yeyak.seoul.go.kr/reservation/view.web?rsvsvcid=S200102173657671800","","","2020-01-02 00:00:00.0","2020-12-31 00:00:00.0","2020-01-02 09:00:00.0","2020-12-31 18:00:00.0","도봉구"
"자체","S200102173343276588","시설대관","강당","접수중","도봉구 창2동 주민센터 대강당 (3층)","유료","도봉구 창2동 자치회관","제한없음","http://yeyak.seoul.go.kr/reservation/view.web?rsvsvcid=S200102173343276588","","","2020-01-02 00:00:00.0","2020-12-31 00:00:00.0","2020-01-02 09:00:00.0","2020-12-31 18:00:00.0","도봉구"
"자체","S200102175700229557","시설대관","회의실","접수중","도봉구 창2동 주민센터 회의실","유료","도봉구 창2동 자치회관","제한없음","http://yeyak.seoul.go.kr/reservation/view.web?rsvsvcid=S200102175700229557","","","2020-01-02 00:00:00.0","2020-12-31 00:00:00.0","2020-01-02 09:00:00.0","2020-12-31 18:00:00.0","도봉구"
"자체","S200108155716466479","시설대관","강당","접수중","도봉아이나라도서관 강당","유료(요금안내문의)","도봉아이나라도서관","제한없음","http://yeyak.seoul.go.kr/reservation/view.web?rsvsvcid=S200108155716466479","37.65904636813937","127.04950726539273","2020-01-08 00:00:00.0","2020-12-31 00:00:00.0","2020-01-08 09:00:00.0","2020-12-31 18:00:00.0","도봉구"
"자체","S200108160029710042","시설대관","다목적실","접수중","도봉아이나라도서관 동아리실","유료(요금안내문의)","도봉아이나라도서관","제한없음","http://yeyak.seoul.go.kr/reservation/view.web?rsvsvcid=S200108160029710042","37.65904636813937","127.04950726539273","2020-01-08 00:00:00.0","2020-12-31 00:00:00.0","2020-01-08 09:00:00.0","2020-12-31 18:00:00.0","도봉구"
"자체","S191231141744139882","시설대관","회의실","예약일시중지","도봉구 창5동 주민센터 창오랑 채움이야기","유료","도봉구 창5동 주민센터","제한없음(서울시 관련시민-상세정보 확인)","http://yeyak.seoul.go.kr/reservation/view.web?rsvsvcid=S191231141744139882","","","2020-01-01 00:00:00.0","2020-12-31 00:00:00.0","2020-01-01 09:00:00.0","2020-12-31 18:00:00.0","도봉구"
"자체","S191231142808840283","시설대관","다목적실","예약일시중지","도봉구 창5동 주민센터 창오랑 궁금한이야기","유료","도봉구 창5동 주민센터","제한없음(서울시 관련시민-상세정보 확인)","http://yeyak.seoul.go.kr/reservation/view.web?rsvsvcid=S191231142808840283","","","2020-01-01 00:00:00.0","2020-12-31 00:00:00.0","2020-01-01 09:00:00.0","2020-12-31 18:00:00.0","도봉구"
"자체","S191231143445002161","시설대관","강의실","예약일시중지","도봉구 창5동 주민센터 교양강좌실","유료","도봉구 창5동 주민센터","제한없음(서울시 관련시민-상세정보확인)","http://yeyak.seoul.go.kr/reservation/view.web?rsvsvcid=S191231143445002161","","","2020-01-01 00:00:00.0","2020-12-31 00:00:00.0","2020-01-01 09:00:00.0","2020-12-31 18:00:00.0","도봉구"
"자체","S191231145318448659","시설대관","강당","예약일시중지","도봉구 창5동 주민센터 대강당(4층)","유료","도봉구 창5동 주민센터","제한없음(서울시 관련시민-상세정보 확인)","http://yeyak.seoul.go.kr/reservation/view.web?rsvsvcid=S191231145318448659","","","2020-01-01 00:00:00.0","2020-12-31 00:00:00.0","2020-01-01 09:00:00.0","2020-12-31 18:00:00.0","도봉구"
"자체","S191231150345596240","시설대관","다목적실","예약일시중지","도봉구 창5동 주민센터 다목적강의실(지하)","유료","도봉구 창5동 주민센터","제한없음(서울시 관련시민-상세정보 확인)","http://yeyak.seoul.go.kr/reservation/view.web?rsvsvcid=S191231150345596240","","","2020-01-01 00:00:00.0","2020-12-31 00:00:00.0","2020-01-01 09:00:00.0","2020-12-31 18:00:00.0","도봉구"
"자체","S190107164443313662","시설대관","회의실","접수종료","도봉구 방학1동 주민센터 둥지회의실","유료","도봉구 방학1동 주민센터","제한없음","http://yeyak.seoul.go.kr/reservation/view.web?rsvsvcid=S190107164443313662","","","2020-01-02 00:00:00.0","2020-12-31 00:00:00.0","2020-01-02 09:00:00.0","2020-12-31 18:00:00.0","도봉구"
"자체","S200102102257583106","시설대관","기타","접수중","도봉구 방학1동 마을아뜰리에 뜻아트","유료","도봉구 방학1동 주민센터","제한없음","http://yeyak.seoul.go.kr/reservation/view.web?rsvsvcid=S200102102257583106","","","2020-01-02 00:00:00.0","2020-12-31 00:00:00.0","2020-01-02 09:00:00.0","2020-12-31 18:00:00.0","도봉구"
"자체","S200102102706231204","시설대관","기타","접수중","도봉구 방학1동 둥지부엌","유료","도봉구 방학1동 주민센터","제한없음","http://yeyak.seoul.go.kr/reservation/view.web?rsvsvcid=S200102102706231204","","","2020-01-02 00:00:00.0","2020-12-31 00:00:00.0","2020-01-02 09:00:00.0","2020-12-31 18:00:00.0","도봉구"
"자체","S200102142329118041","시설대관","강당","접수중","도봉구 방학1동 주민센터 강당","유료","도봉구 방학1동 주민센터","제한없음","http://yeyak.seoul.go.kr/reservation/view.web?rsvsvcid=S200102142329118041","","","2020-01-02 00:00:00.0","2020-12-31 00:00:00.0","2020-01-02 09:00:00.0","2020-12-31 18:00:00.0","도봉구"
"자체","S200102143453366449","시설대관","회의실","접수중","도봉구 방학1동 주민센터 둥지회의실","유료","도봉구 방학1동 주민센터","제한없음","http://yeyak.seoul.go.kr/reservation/view.web?rsvsvcid=S200102143453366449","","","2020-01-02 00:00:00.0","2020-12-31 00:00:00.0","2020-01-02 09:00:00.0","2020-12-31 18:00:00.0","도봉구"
"자체","S200102101255877343","시설대관","다목적실","접수중","도봉구 도봉2동 주민센터 다목적실","유료","도봉2동 주민센터 -다목적실","제한없음","http://yeyak.seoul.go.kr/reservation/view.web?rsvsvcid=S200102101255877343","","","2020-01-02 00:00:00.0","2020-12-31 00:00:00.0","2020-01-02 09:00:00.0","2020-12-31 18:00:00.0","도봉구"
"자체","S200102160740159863","시설대관","다목적실","접수중","도봉구 쌍문2동 주민센터 다목적강좌실","유료","도봉구 쌍문2동주민센터","제한없음","http://yeyak.seoul.go.kr/reservation/view.web?rsvsvcid=S200102160740159863","","","2020-01-02 00:00:00.0","2020-12-31 00:00:00.0","2020-01-02 09:00:00.0","2020-12-31 18:00:00.0","도봉구"
"자체","S200102163739668788","시설대관","회의실","접수중","도봉구 쌍문2동 주민센터 회의실(2층)","유료","도봉구 쌍문2동주민센터","제한없음","http://yeyak.seoul.go.kr/reservation/view.web?rsvsvcid=S200102163739668788","","","2020-01-02 00:00:00.0","2020-12-31 00:00:00.0","2020-01-02 00:00:00.0","2020-12-31 18:00:00.0","도봉구"
"자체","S200103154434335518","시설대관","회의실","접수중","도봉문화정보도서관 동아리방","유료(요금안내문의)","도봉구립도서관","제한없음","http://yeyak.seoul.go.kr/reservation/view.web?rsvsvcid=S200103154434335518","","","2020-01-03 00:00:00.0","2020-12-31 00:00:00.0","2020-01-03 09:00:00.0","2020-12-31 18:00:00.0","도봉구"
"자체","S200103162411350668","시설대관","강의실","접수중","도봉문화정보도서관 대강의실 (2층)","유료(요금안내문의)","도봉구립도서관","제한없음","http://yeyak.seoul.go.kr/reservation/view.web?rsvsvcid=S200103162411350668","","","2020-01-03 00:00:00.0","2020-12-31 00:00:00.0","2020-01-03 09:00:00.0","2020-12-31 18:00:00.0","도봉구"
"자체","S200103162651450355","시설대관","강의실","접수중","도봉문화정보도서관 강의실1 (2층)","유료(요금안내문의)","도봉구립도서관","제한없음","http://yeyak.seoul.go.kr/reservation/view.web?rsvsvcid=S200103162651450355","","","2020-01-03 00:00:00.0","2020-12-31 00:00:00.0","2020-01-03 09:00:00.0","2020-12-31 18:00:00.0","도봉구"
"자체","S200103163036610068","시설대관","강의실","접수중","도봉문화정보도서관 강의실2 (2층)","유료(요금안내문의)","도봉구립도서관","제한없음","http://yeyak.seoul.go.kr/reservation/view.web?rsvsvcid=S200103163036610068","","","2020-01-03 00:00:00.0","2020-12-31 00:00:00.0","2020-01-03 09:00:00.0","2020-12-31 18:00:00.0","도봉구"
"자체","S200102143817514270","시설대관","강당","접수중","도봉구 방학2동 주민센터 강당","유료","도봉구 방학2동주민센터","제한없음","http://yeyak.seoul.go.kr/reservation/view.web?rsvsvcid=S200102143817514270","","","2020-01-02 00:00:00.0","2020-12-31 00:00:00.0","2020-01-02 09:00:00.0","2020-12-31 18:00:00.0","도봉구"
"자체","S200102144312798355","시설대관","강의실","접수중","도봉구 방학2동 주민센터 교양강좌실(2층)","유료","도봉구 방학2동주민센터","제한없음","http://yeyak.seoul.go.kr/reservation/view.web?rsvsvcid=S200102144312798355","","","2020-01-02 00:00:00.0","2020-12-31 00:00:00.0","2020-01-02 09:00:00.0","2020-12-31 18:00:00.0","도봉구"
"자체","S200108171057734644","시설대관","다목적실","접수중","둘리뮤지엄 기획전시실","유료(요금안내문의)","둘리뮤지엄","제한없음","http://yeyak.seoul.go.kr/reservation/view.web?rsvsvcid=S200108171057734644","37.652429497961585","127.02763657347647","2020-01-08 00:00:00.0","2020-12-31 00:00:00.0","2020-01-08 09:00:00.0","2020-12-31 18:00:00.0","도봉구"