"강좌코드","강좌명","기관코드","기관명","난이도코드","난이도명","수강신청 접수시작일","수강신청 접수종료일","수강신청 접수시작시간","수강신청 접수마감시간","교육시작일","교육종료일","교육시작시간","교육종료시간","교육요일(월)","교육요일(화)","교육요일(수)","교육요일(목)","교육요일(금)","교육요일(토)","교육요일(일)","모집정원","예비자모집인원","수강료(원)","접수방법(방문접수여부Y,N)","접수방법(온라인접수여부Y,N)","상세정보 주소"
"C100112269","[자격증] 정리수납컨설턴트 2급","18","동작여성인력개발센터","J","초급","20200601","20200710","09:00","18:00","20200710","20200807","10:00","13:00","Y","Y","Y","Y","Y","Y","","20","5","80000","Y","Y","https://dongjak.seoulwomanup.or.kr/dongjak/edu/selectEduProgram.do?sch_class_code=C100112269"
"C100112267","패밀리룩 의류제작사(주말반)","18","동작여성인력개발센터","J","초급","20200610","20200815","09:00","18:00","20200822","20201107","09:30","16:00","Y","Y","Y","Y","Y","Y","","10","0","432880","Y","Y","https://dongjak.seoulwomanup.or.kr/dongjak/edu/selectEduProgram.do?sch_class_code=C100112267"
"C100112264","실무엑셀함수와기능활용","18","동작여성인력개발센터","M","중급","20200610","20200703","09:00","20:00","20200706","20200729","19:00","22:00","Y","Y","Y","Y","Y","Y","","12","0","133800","Y","Y","https://dongjak.seoulwomanup.or.kr/dongjak/edu/selectEduProgram.do?sch_class_code=C100112264"
"C100112202","[8기] 호텔객실관리사","18","동작여성인력개발센터","N","관계없음","20200601","20200630","09:00","18:00","20200715","20200728","09:30","13:30","Y","Y","Y","Y","Y","Y","","12","0","0","Y","Y","https://dongjak.seoulwomanup.or.kr/dongjak/edu/selectEduProgram.do?sch_class_code=C100112202"
"C100112201","[7기] 호텔객실관리사","18","동작여성인력개발센터","N","관계없음","20200601","20200630","09:00","18:00","20200701","20200714","09:30","13:30","Y","Y","Y","Y","Y","Y","","12","0","0","Y","Y","https://dongjak.seoulwomanup.or.kr/dongjak/edu/selectEduProgram.do?sch_class_code=C100112201"
"C100112200","요양보호사 자격증(신규)","18","동작여성인력개발센터","C","자격","20200605","20200807","09:00","18:00","20200810","20201023","09:30","13:30","Y","Y","Y","Y","Y","Y","","20","0","630000","Y","Y","https://dongjak.seoulwomanup.or.kr/dongjak/edu/selectEduProgram.do?sch_class_code=C100112200"
"C100112199","요양보호사 자격증(사회복지사)","18","동작여성인력개발센터","C","자격","20200605","20200717","09:00","18:00","20200720","20200729","09:30","17:00","Y","Y","Y","Y","Y","Y","","20","0","200000","Y","Y","https://dongjak.seoulwomanup.or.kr/dongjak/edu/selectEduProgram.do?sch_class_code=C100112199"
"C100112197","의류수선실무","18","동작여성인력개발센터","J","초급","20200605","20200710","09:00","18:00","20200714","20201008","19:00","22:00","Y","Y","Y","Y","Y","Y","","10","0","436500","Y","Y","https://dongjak.seoulwomanup.or.kr/dongjak/edu/selectEduProgram.do?sch_class_code=C100112197"
"C100112196","반찬조리실무","18","동작여성인력개발센터","J","초급","20200604","20200702","09:00","18:00","20200707","20200828","09:30","12:30","Y","Y","Y","Y","Y","Y","","12","0","543600","Y","Y","https://dongjak.seoulwomanup.or.kr/dongjak/edu/selectEduProgram.do?sch_class_code=C100112196"
"C100112191","플라워디자인(플라워샵실무)","18","동작여성인력개발센터","J","초급","20200604","20200716","09:00","18:00","20200720","20201012","19:00","22:00","Y","Y","Y","Y","Y","Y","","15","0","646020","Y","Y","https://dongjak.seoulwomanup.or.kr/dongjak/edu/selectEduProgram.do?sch_class_code=C100112191"
"C100112190","컴퓨터기초와 문서작성","18","동작여성인력개발센터","J","초급","20200605","20200703","09:00","18:00","20200706","20200819","19:00","22:00","Y","Y","Y","Y","Y","Y","","12","0","166800","Y","Y","https://dongjak.seoulwomanup.or.kr/dongjak/edu/selectEduProgram.do?sch_class_code=C100112190"
"C100112158","패턴&의류제작사","18","동작여성인력개발센터","J","초급","20200604","20200626","09:00","18:00","20200629","20200916","19:00","22:00","Y","Y","Y","Y","Y","Y","","10","0","422880","Y","Y","https://dongjak.seoulwomanup.or.kr/dongjak/edu/selectEduProgram.do?sch_class_code=C100112158"